turnoff 660 55 986 197
turnoff 341 304 638 850
turnoff 199 133 461 193
toggle 322 558 977 958
toggle 537 781 687 941
turnon 226 196 599 390
turnon 240 129 703 297
turnon 317 329 451 798
turnon 957 736 977 890
turnon 263 530 559 664
turnon 158 270 243 802
toggle 223 39 454 511
toggle 544 218 979 872
turnon 313 306 363 621
toggle 173 401 496 407
toggle 333 60 748 159
turnoff 87 577 484 608
turnon 809 648 826 999
toggle 352 432 628 550
turnoff 197 408 579 569
turnoff 1 629 802 633
turnoff 61 44 567 111
toggle 880 25 903 973
turnon 347 123 864 746
toggle 728 877 996 975
turnon 121 895 349 906
turnon 888 547 931 628
toggle 398 782 834 882
turnon 966 850 989 953
turnoff 891 543 914 991
toggle 908 77 916 117
turnon 576 900 943 934
turnoff 580 170 963 206
turnon 184 638 192 944
toggle 940 147 978 730
turnoff 854 56 965 591
toggle 717 172 947 995
toggle 426 987 705 998
turnon 987 157 992 278
toggle 995 774 997 784
turnoff 796 96 845 182
turnoff 451 87 711 655
turnoff 380 93 968 676
turnon 263 468 343 534
turnon 917 936 928 959
toggle 478 7 573 148
turnoff 428 339 603 624
turnoff 400 880 914 953
toggle 679 428 752 779
turnoff 697 981 709 986
toggle 482 566 505 725
turnoff 956 368 993 516
toggle 735 823 783 883
turnoff 48 487 892 496
turnoff 116 680 564 819
turnon 633 865 729 930
turnoff 314 618 571 922
toggle 138 166 936 266
turnon 444 732 664 960
turnoff 109 337 972 497
turnoff 51 432 77 996
turnoff 259 297 366 744
toggle 801 130 917 544
toggle 767 982 847 996
turnon 216 507 863 885
turnoff 61 441 465 731
turnon 849 970 944 987
toggle 845 76 852 951
toggle 732 615 851 936
toggle 251 128 454 778
turnon 324 429 352 539
toggle 52 450 932 863
turnoff 449 379 789 490
turnon 317 319 936 449
toggle 887 670 957 838
toggle 671 613 856 664
turnoff 186 648 985 991
turnoff 471 689 731 717
toggle 91 331 750 758
toggle 201 73 956 524
toggle 82 614 520 686
toggle 84 287 467 734
turnoff 132 367 208 838
toggle 558 684 663 920
turnon 237 952 265 997
turnon 694 713 714 754
turnon 632 523 862 827
turnon 918 780 948 916
turnon 349 586 663 976
toggle 231 29 257 589
toggle 886 428 902 993
turnon 106 353 236 374
turnon 734 577 759 684
turnoff 347 843 696 912
turnon 286 699 964 883
turnon 605 875 960 987
turnoff 328 286 869 461
turnoff 472 569 980 848
toggle 673 573 702 884
turnoff 398 284 738 332
turnon 158 50 284 411
turnoff 390 284 585 663
turnon 156 579 646 581
turnon 875 493 989 980
toggle 486 391 924 539
turnon 236 722 272 964
toggle 228 282 470 581
toggle 584 389 750 761
turnoff 899 516 900 925
turnon 105 229 822 846
turnoff 253 77 371 877
turnon 826 987 906 992
turnoff 13 152 615 931
turnon 835 320 942 399
turnon 463 504 536 720
toggle 746 942 786 998
turnoff 867 333 965 403
turnon 591 477 743 692
turnoff 403 437 508 908
turnon 26 723 368 814
turnon 409 485 799 809
turnon 115 630 704 705
turnoff 228 183 317 220
toggle 300 649 382 842
turnoff 495 365 745 562
turnon 698 346 744 873
turnon 822 932 951 934
toggle 805 30 925 421
toggle 441 152 653 274
toggle 160 81 257 587
turnoff 350 781 532 917
toggle 40 583 348 636
turnon 280 306 483 395
toggle 392 936 880 955
toggle 496 591 851 934
turnoff 780 887 946 994
turnoff 205 735 281 863
toggle 100 876 937 915
turnon 392 393 702 878
turnon 956 374 976 636
toggle 478 262 894 775
turnoff 279 65 451 677
turnon 397 541 809 847
turnon 444 291 451 586
toggle 721 408 861 598
turnon 275 365 609 382
turnon 736 24 839 72
turnoff 86 492 582 712
turnon 676 676 709 703
turnoff 105 710 374 817
toggle 328 748 845 757
toggle 335 79 394 326
toggle 193 157 633 885
turnon 227 48 769 743
toggle 148 333 614 568
toggle 22 30 436 263
toggle 547 447 688 969
toggle 576 621 987 740
turnon 711 334 799 515
turnon 541 448 654 951
toggle 792 199 798 990
turnon 89 956 609 960
toggle 724 433 929 630
toggle 144 895 201 916
toggle 226 730 632 871
turnoff 760 819 828 974
toggle 887 180 940 310
toggle 222 327 805 590
turnoff 630 824 885 963
turnon 940 740 954 946
turnon 193 373 779 515
toggle 304 955 469 975
turnoff 405 480 546 960
turnon 662 123 690 669
turnoff 615 238 750 714
turnon 423 220 930 353
turnon 329 769 358 970
toggle 590 151 704 722
turnoff 884 539 894 671
toggle 449 241 984 549
toggle 449 260 496 464
turnoff 306 448 602 924
turnon 286 805 555 901
toggle 722 177 922 298
toggle 491 554 723 753
turnon 80 849 174 996
turnoff 296 561 530 856
toggle 653 10 972 284
toggle 529 236 672 614
toggle 791 598 989 695
turnon 19 45 575 757
toggle 111 55 880 871
turnoff 197 897 943 982
turnon 912 336 977 605
toggle 101 221 537 450
turnon 101 104 969 447
toggle 71 527 587 717
toggle 336 445 593 889
toggle 214 179 575 699
turnon 86 313 96 674
toggle 566 427 906 888
turnoff 641 597 850 845
turnon 606 524 883 704
turnon 835 775 867 887
toggle 547 301 897 515
toggle 289 930 413 979
turnon 361 122 457 226
turnon 162 187 374 746
turnon 348 461 454 675
turnoff 966 532 985 537
turnon 172 354 630 606
turnoff 501 880 680 993
turnoff 8 70 566 592
toggle 433 73 690 651
toggle 840 798 902 971
toggle 822 204 893 760
turnoff 453 496 649 795
turnoff 969 549 990 942
turnoff 789 28 930 267
toggle 880 98 932 434
toggle 568 674 669 753
turnon 686 228 903 271
turnon 263 995 478 999
toggle 534 675 687 955
turnoff 342 434 592 986
toggle 404 768 677 867
toggle 126 723 978 987
toggle 749 675 978 959
turnoff 445 330 446 885
turnoff 463 205 924 815
turnoff 417 430 915 472
turnon 544 990 912 999
turnoff 201 255 834 789
turnoff 261 142 537 862
turnoff 562 934 832 984
turnoff 459 978 691 980
turnoff 73 911 971 972
turnon 560 448 723 810
turnon 204 630 217 854
turnoff 91 259 611 607
turnon 877 32 978 815
turnoff 950 438 974 746
toggle 426 30 609 917
toggle 696 37 859 201
toggle 242 417 682 572
turnoff 388 401 979 528
turnoff 79 345 848 685
turnoff 98 91 800 434
toggle 650 700 972 843
turnoff 530 450 538 926
turnon 428 559 962 909
turnon 78 138 92 940
toggle 194 117 867 157
toggle 785 355 860 617
turnoff 379 441 935 708
turnoff 605 133 644 911
toggle 10 963 484 975
turnoff 359 988 525 991
turnoff 509 138 787 411
toggle 556 467 562 773
turnon 119 486 246 900
turnon 445 561 794 673
turnoff 598 681 978 921
turnoff 974 230 995 641
turnoff 760 75 800 275
toggle 441 215 528 680
turnoff 701 636 928 877
turnon 165 753 202 780
toggle 501 412 998 516
toggle 161 105 657 395
turnon 113 340 472 972
toggle 384 994 663 999
turnon 969 994 983 997
turnon 519 600 750 615
turnoff 363 899 948 935
turnon 271 845 454 882
turnoff 376 528 779 640
toggle 767 98 854 853
toggle 107 322 378 688
turnoff 235 899 818 932
turnon 445 611 532 705
toggle 629 387 814 577
toggle 112 414 387 421
toggle 319 184 382 203
turnon 627 796 973 940
toggle 602 45 763 151
turnoff 441 375 974 545
toggle 871 952 989 998
turnon 717 272 850 817
toggle 475 711 921 882
toggle 66 191 757 481
turnoff 50 197 733 656
toggle 83 575 915 728
turnon 777 812 837 912
turnon 20 984 571 994
turnoff 446 432 458 648
turnon 715 871 722 890
toggle 424 675 740 862
toggle 580 592 671 900
toggle 296 687 906 775
